<?xml version="1.0" encoding="utf-8"?>
<!-- Generator: Adobe Illustrator 25.0.0, SVG Export Plug-In . SVG Version: 6.00 Build 0)  -->
<svg version="1.1" id="Layer_1" xmlns="http://www.w3.org/2000/svg" xmlns:xlink="http://www.w3.org/1999/xlink" x="0px" y="0px"
	 viewBox="0 0 10 10" style="enable-background:new 0 0 10 10;" xml:space="preserve">
<style type="text/css">
	.st0{fill:#663399;}
</style>
<path class="st0" d="M3,8C2.5,8,2,8.4,2,9s0.4,1,1,1s1-0.4,1-1S3.6,8,3,8z M0,0v1h1l1.8,3.8L2.1,6C2,6.2,2,6.3,2,6.5
	c0,0.6,0.5,1,1,1h6v-1H3.2c-0.1,0-0.1-0.1-0.1-0.1l0-0.1l0.5-0.8h3.7C7.6,5.5,8,5.3,8.1,5l1.8-3.2C10,1.7,10,1.6,10,1.5
	C10,1.2,9.8,1,9.5,1H2.1L1.6,0C1.6,0,0,0,0,0z M8,8C7.4,8,7,8.4,7,9s0.4,1,1,1s1-0.4,1-1S8.6,8,8,8z"/>
</svg>
