<?xml version="1.0" encoding="utf-8"?>
<!-- Generator: Adobe Illustrator 25.0.0, SVG Export Plug-In . SVG Version: 6.00 Build 0)  -->
<svg version="1.1" id="Слой_1" xmlns="http://www.w3.org/2000/svg" xmlns:xlink="http://www.w3.org/1999/xlink" x="0px" y="0px"
	 viewBox="0 0 245.9 34.7" style="enable-background:new 0 0 245.9 34.7;" xml:space="preserve">
<style type="text/css">
	.st0{fill:#663399;}
	.st1{fill:none;stroke:#663399;stroke-width:2;}
</style>
<g>
	<path class="st0" d="M63.9,11.5l1.2,2.7l-7.6,3.2l7.6,3.1l-1.2,2.7l-9.6-4.1v-3.3L63.9,11.5z"/>
	<path d="M84.7,17.8c0.7,0.7,1.1,1.7,1,2.7c0.1,1.5-0.6,3-1.9,3.8c-1.7,0.8-3.5,1.2-5.3,1.1h-5.3V8.7h4.7c1.8-0.1,3.7,0.2,5.3,1
		c1.2,0.6,1.9,1.9,1.8,3.2c0,0.9-0.3,1.7-0.9,2.4c-0.6,0.6-1.4,1-2.2,1.2C83,16.7,84,17.1,84.7,17.8z M77.1,11.5v3.9h1.5
		c1.7,0,2.5-0.7,2.5-2c0.1-0.6-0.2-1.1-0.7-1.4c-0.7-0.3-1.4-0.5-2.1-0.4H77.1z M80.9,22c0.6-0.4,0.9-1.1,0.8-1.7
		c0-1.5-1-2.3-2.9-2.3h-1.7v4.5h1.4C79.4,22.6,80.2,22.4,80.9,22z"/>
	<path d="M98.7,25.4h-3.3l-0.2-1.6c-0.9,1.3-2.3,2-3.9,2c-1,0.1-2-0.3-2.7-1c-0.7-0.9-1-1.9-0.9-3v-9.1h3.8v8.7
		c0,0.5,0.1,0.9,0.3,1.3c0.2,0.3,0.6,0.4,0.9,0.4c0.9-0.1,1.7-0.6,2.1-1.5v-8.9h3.8L98.7,25.4z M91.8,6.7c0.4,0.4,0.6,0.8,0.6,1.3
		c0,0.5-0.2,1-0.6,1.3C91.5,9.8,91,10,90.5,10c-0.5,0-1-0.2-1.4-0.6c-0.4-0.3-0.6-0.8-0.6-1.3c0-0.5,0.2-1,0.6-1.3
		c0.4-0.4,0.9-0.6,1.4-0.5C91,6.2,91.5,6.4,91.8,6.7z M97.4,6.7C97.8,7.1,98,7.6,98,8.1c0,0.5-0.2,1-0.6,1.3C97,9.8,96.5,10,96,10
		c-0.5,0-1-0.2-1.3-0.6c-0.4-0.3-0.6-0.8-0.6-1.3c0-0.5,0.2-1,0.6-1.3C95,6.4,95.5,6.2,96,6.2C96.5,6.2,97,6.4,97.4,6.7z"/>
	<path d="M109.8,12.4l-0.6,3.7c-0.4-0.1-0.8-0.2-1.2-0.2c-0.7,0-1.3,0.3-1.7,0.8c-0.5,0.7-0.8,1.5-0.9,2.3v6.3h-3.8V12.6h3.3
		l0.3,2.5c0.2-0.8,0.7-1.5,1.3-2.1c0.6-0.5,1.3-0.8,2-0.8C109,12.3,109.4,12.3,109.8,12.4z"/>
	<path d="M120.7,14c1.2,1.4,1.8,3.2,1.7,5c0,1.2-0.2,2.4-0.8,3.6c-0.5,1-1.2,1.8-2.2,2.4c-1,0.6-2.2,0.9-3.3,0.8
		c-1.7,0.1-3.4-0.6-4.6-1.8c-1.2-1.4-1.8-3.2-1.7-5c0-1.2,0.2-2.4,0.8-3.6c0.5-1,1.2-1.8,2.2-2.4c1-0.6,2.2-0.9,3.3-0.9
		C117.8,12.1,119.5,12.8,120.7,14z M114.4,16c-0.4,0.9-0.6,2-0.6,3c-0.1,1,0.1,2.1,0.6,3c0.5,1,1.8,1.3,2.7,0.7
		c0.3-0.2,0.6-0.4,0.7-0.7c0.4-0.9,0.6-2,0.6-3c0.1-1-0.1-2.1-0.6-3c-0.5-1-1.8-1.3-2.7-0.7C114.8,15.4,114.5,15.7,114.4,16z"/>
	<path d="M140.6,22.7c0.2,0.2,0.4,0.4,0.7,0.5l-0.8,2.5c-0.7,0-1.3-0.2-1.9-0.5c-0.5-0.3-0.9-0.8-1.2-1.3c-0.8,1.3-2.3,2-3.8,1.9
		c-1.1,0.1-2.2-0.3-3-1.1c-0.8-0.8-1.2-1.8-1.1-2.9c-0.1-1.3,0.5-2.5,1.5-3.2c1.3-0.8,2.9-1.2,4.4-1.1h1.3v-0.5
		c0.1-0.6-0.1-1.1-0.5-1.6c-0.5-0.3-1.1-0.5-1.7-0.4c-0.5,0-1,0.1-1.5,0.2c-0.6,0.1-1.2,0.3-1.8,0.5l-0.9-2.5
		c0.8-0.3,1.6-0.5,2.5-0.7c0.8-0.2,1.6-0.3,2.4-0.3c1.4-0.1,2.8,0.3,4,1.1c0.9,0.9,1.4,2.1,1.3,3.4v4.9
		C140.4,22,140.4,22.4,140.6,22.7z M136.7,21.8v-2.3h-0.9c-0.7,0-1.4,0.1-1.9,0.5c-0.4,0.3-0.7,0.9-0.6,1.4c0,0.4,0.1,0.9,0.4,1.2
		c0.3,0.3,0.7,0.4,1.1,0.4C135.5,23.1,136.3,22.6,136.7,21.8z"/>
	<path d="M159.9,13.2c0.6,0.8,1,1.8,0.9,2.8v9.3h-3.8v-8.6c0-1.1-0.4-1.7-1.1-1.7c-0.4,0-0.8,0.1-1.1,0.4c-0.4,0.4-0.7,0.8-0.9,1.2
		v8.7h-3.7v-8.7c0-1.1-0.4-1.7-1.1-1.7c-0.4,0-0.7,0.2-1,0.4c-0.4,0.4-0.7,0.8-0.9,1.2v8.7h-3.8V12.6h3.3l0.3,1.5
		c0.4-0.6,1-1.1,1.6-1.4c0.6-0.3,1.3-0.5,2-0.5c0.7,0,1.3,0.2,1.9,0.5c0.5,0.4,0.9,0.9,1.1,1.5c0.4-0.6,1-1.1,1.7-1.5
		c0.7-0.3,1.4-0.5,2.1-0.5C158.4,12.1,159.3,12.5,159.9,13.2z"/>
	<path d="M180.4,10.5c1.6,1.2,2.4,3.3,2.4,6.5c0,3.1-0.8,5.3-2.3,6.5c-1.7,1.3-3.8,2-6,1.9h-5V8.7h4.6
		C176.3,8.6,178.5,9.2,180.4,10.5z M173.4,11.6v10.9h1.3c1.1,0.1,2.2-0.4,3-1.2c0.7-0.8,1-2.2,1-4.3c0-1.1-0.1-2.3-0.5-3.3
		c-0.2-0.7-0.7-1.3-1.4-1.6c-0.7-0.3-1.4-0.5-2.1-0.4H173.4z"/>
	<path d="M193.2,12.4l-0.6,3.7c-0.4-0.1-0.8-0.2-1.1-0.2c-0.7,0-1.3,0.2-1.7,0.8c-0.5,0.7-0.8,1.5-0.9,2.3v6.3H185V12.6h3.3l0.3,2.5
		c0.2-0.8,0.7-1.5,1.3-2.1c0.5-0.5,1.3-0.8,2-0.8C192.4,12.3,192.8,12.3,193.2,12.4z"/>
	<path d="M204.2,22.7c0.2,0.2,0.4,0.4,0.7,0.5l-0.8,2.5c-0.7,0-1.3-0.2-1.9-0.5c-0.5-0.3-0.9-0.8-1.1-1.3c-0.8,1.3-2.3,2-3.8,1.9
		c-1.1,0.1-2.2-0.3-3-1.1c-0.8-0.8-1.2-1.8-1.1-2.9c-0.1-1.3,0.5-2.5,1.5-3.2c1.3-0.8,2.9-1.2,4.4-1.1h1.3v-0.5
		c0.1-0.6-0.1-1.1-0.5-1.6c-0.5-0.3-1.1-0.5-1.7-0.4c-0.5,0-1,0.1-1.5,0.2c-0.6,0.1-1.2,0.3-1.8,0.5l-0.9-2.5
		c0.8-0.3,1.6-0.5,2.5-0.7c0.8-0.2,1.6-0.3,2.3-0.3c1.4-0.1,2.8,0.3,4,1.1c0.9,0.9,1.4,2.1,1.3,3.4v4.9
		C203.9,22,204,22.4,204.2,22.7z M200.2,21.8v-2.3h-0.9c-0.7,0-1.4,0.1-1.9,0.5c-0.4,0.3-0.7,0.9-0.6,1.4c0,0.4,0.1,0.9,0.4,1.2
		c0.3,0.3,0.7,0.4,1.1,0.4C199.1,23.1,199.9,22.6,200.2,21.8z"/>
	<path d="M217,13.2c0.7,0.8,1,1.8,0.9,2.8v9.3h-3.8v-8.6c0-0.5-0.1-0.9-0.3-1.3c-0.2-0.3-0.5-0.4-0.9-0.4c-0.8,0-1.5,0.5-2.2,1.6
		v8.7H207V7.6l3.8-0.4V14c0.5-0.5,1-1,1.7-1.3c0.6-0.3,1.3-0.5,2-0.4C215.4,12.2,216.4,12.5,217,13.2z"/>
	<path d="M228.8,24.8c-0.5,0.3-1,0.6-1.6,0.7c-0.6,0.2-1.2,0.3-1.8,0.3c-2.8,0-4.2-1.5-4.2-4.6v-5.9h-1.8v-2.6h1.8V9.9l3.8-0.4v3.2
		h2.9l-0.4,2.6H225v5.9c0,0.4,0.1,0.9,0.3,1.3c0.2,0.3,0.6,0.4,0.9,0.4c0.5,0,0.9-0.2,1.4-0.4L228.8,24.8z"/>
	<path class="st0" d="M236.3,11.5l9.6,4.2v3.3l-9.6,4.1l-1.2-2.8l7.6-3.1l-7.6-3.2L236.3,11.5z"/>
</g>
<circle class="st0" cx="19.5" cy="17.4" r="3.4"/>
<g>
	<ellipse class="st1" cx="19.5" cy="17.4" rx="18.5" ry="7"/>
	<ellipse transform="matrix(0.866 -0.5 0.5 0.866 -6.0795 12.0568)" class="st1" cx="19.5" cy="17.4" rx="7" ry="18.5"/>
	<ellipse transform="matrix(0.5 -0.866 0.866 0.5 -5.3161 25.5381)" class="st1" cx="19.5" cy="17.4" rx="18.5" ry="7"/>
</g>
</svg>
